{
  "project_info": {
    "project_number": "633000312340",
    "firebase_url": "https://cloudtask-52c3e.firebaseio.com",
    "project_id": "cloudtask-52c3e",
    "storage_bucket": "cloudtask-52c3e.appspot.com"
  },
  "client": [
    {
      "client_info": {
        "mobilesdk_app_id": "1:633000312340:android:23742036a7d3f9bd",
        "android_client_info": {
          "package_name": "ru.ice_aqua.rundrawer"
        }
      },
      "oauth_client": [
        {
          "client_id": "633000312340-nkmt7gkv573ntaeibdnv4hh7t5hri2r3.apps.googleusercontent.com",
          "client_type": 1,
          "android_info": {
            "package_name": "ru.ice_aqua.rundrawer",
            "certificate_hash": "e9ce11e8c49c8c3c07bfb1b6a7ee762806ca0d8f"
          }
        },
        {
          "client_id": "633000312340-aptkfec8d9un66nm5rg3vcmbfi0huskb.apps.googleusercontent.com",
          "client_type": 3
        }
      ],
      "api_key": [
        {
          "current_key": "AIzaSyBfJLiQqHFOcndWKJCtuwl85Nucvqe4fyg"
        }
      ],
      "services": {
        "analytics_service": {
          "status": 1
        },
        "appinvite_service": {
          "status": 2,
          "other_platform_oauth_client": [
            {
              "client_id": "633000312340-aptkfec8d9un66nm5rg3vcmbfi0huskb.apps.googleusercontent.com",
              "client_type": 3
            }
          ]
        },
        "ads_service": {
          "status": 2
        }
      }
    }
  ],
  "configuration_version": "1"
}